Post 2 - How to Subset Data and Output Basic Descriptives
…
Now that we’ve created our week variable, we can use tidyr::nest to group our dataset by week, by country, or both. This will allow us to loop our function through each grouping variable and provide unique descriptives for each.

We will nest our data by the variables country and week

#week 7 only has one day  -- filter out here if it becomes a problem

d2 <- d %>%
  group_by(country, week) %>% 
  nest()

print(d2)

# A tibble: 133 x 3
# Groups:   country, week [133]
   country    week data             
   <chr>     <int> <list>           
 1 Argentina     1 <tibble [7 x 11]>
 2 Argentina     2 <tibble [7 x 11]>
 3 Argentina     3 <tibble [7 x 11]>
 4 Argentina     4 <tibble [7 x 11]>
 5 Argentina     5 <tibble [7 x 11]>
 6 Argentina     6 <tibble [7 x 11]>
 7 Argentina     7 <tibble [1 x 11]>
 8 Australia     1 <tibble [7 x 11]>
 9 Australia     2 <tibble [7 x 11]>
10 Australia     3 <tibble [7 x 11]>
# ... with 123 more rows
…
$residential specifies which variable within data we are interested in.

mean(d2$data[[1]]$residential)

[1] 1.674143

Next, we can attempt to loop through each cell in the ‘data’ column (that is, grouped by country and week) to find the residential means for each.

residential_mean <- d2 %>% 
  mutate(mean = map(data, ~mean(.x$residential))) %>% 
  unnest(mean)

print(residential_mean)

# A tibble: 133 x 4
# Groups:   country, week [133]
   country    week data                mean
   <chr>     <int> <list>             <dbl>
 1 Argentina     1 <tibble [7 x 11]>  1.67 
 2 Argentina     2 <tibble [7 x 11]> -0.637
 3 Argentina     3 <tibble [7 x 11]>  0.592
 4 Argentina     4 <tibble [7 x 11]> 15.4  
 5 Argentina     5 <tibble [7 x 11]> 30.0  
 6 Argentina     6 <tibble [7 x 11]> 28.5  
 7 Argentina     7 <tibble [1 x 11]> 25.9  
 8 Australia     1 <tibble [7 x 11]> -1.32 
 9 Australia     2 <tibble [7 x 11]> -0.815
10 Australia     3 <tibble [7 x 11]>  0.442
# ... with 123 more rows
…
#this only works for mean of a specific variable in the nested list (e.g., residential)
#can't get it to generalize across all the different settings 
test2 <- d2 %>% 
  mutate(mean_sd = map(data, 
                     ~map_dfc(lst(mean, sd), 
                               function(.fun) .fun(.x$residential)))) %>% 
  unnest(mean_sd)
test2

# A tibble: 133 x 5
# Groups:   country, week [133]
   country    week data                mean     sd
   <chr>     <int> <list>             <dbl>  <dbl>
 1 Argentina     1 <tibble [7 x 11]>  1.67   3.55 
 2 Argentina     2 <tibble [7 x 11]> -0.637  1.73 
 3 Argentina     3 <tibble [7 x 11]>  0.592  3.22 
 4 Argentina     4 <tibble [7 x 11]> 15.4    9.33 
 5 Argentina     5 <tibble [7 x 11]> 30.0    1.86 
 6 Argentina     6 <tibble [7 x 11]> 28.5    1.39 
 7 Argentina     7 <tibble [1 x 11]> 25.9   NA    
 8 Australia     1 <tibble [7 x 11]> -1.32   0.714
 9 Australia     2 <tibble [7 x 11]> -0.815  0.731
10 Australia     3 <tibble [7 x 11]>  0.442  1.90 
# ... with 123 more rows
…
  df %>% 
    summarise_at(vars({{outcome}}), 
                 .funs = .fun)
}

#specify which variables to group by to get descriptives AND which variables you want descriptives for

d %>% 
  group_by(country, week) %>% 
  descriptives(c(residential, workplaces))

# A tibble: 133 x 12
# Groups:   country [19]
   country  week residential_n workplaces_n residential_mean
   <chr>   <int>         <int>        <int>            <dbl>
 1 Argent~     1             7            7            1.67 
 2 Argent~     2             7            7           -0.637
 3 Argent~     3             7            7            0.592
 4 Argent~     4             7            7           15.4  
 5 Argent~     5             7            7           30.0  
 6 Argent~     6             7            7           28.5  
 7 Argent~     7             1            1           25.9  
 8 Austra~     1             7            7           -1.32 
 9 Austra~     2             7            7           -0.815
10 Austra~     3             7            7            0.442
# ... with 123 more rows, and 7 more variables:
#   workplaces_mean <dbl>, residential_sd <dbl>, workplaces_sd <dbl>,
#   residential_min <dbl>, workplaces_min <dbl>,
#   residential_max <dbl>, workplaces_max <dbl>
…
